{
  "EnemyList": [
    {
      "PrefabPath": "Enemies/NavAgentedEnemy",
      "Damage": 10,
      "Speed": 2,
      "StartHealth": 100,
      "AttackDistance": 2
    },
    {
      "PrefabPath": "Enemies/NavAgentedEnemy",
      "Damage": 20,
      "Speed": 4,
      "StartHealth": 100,
      "AttackDistance": 2
    }
  ],
  "SpawnPeriod": 5,
  "CountToSpawn": 10,
  "x": 92.1,
  "y": -3.8,
  "z": 95.7
}