{
  "TowerDataList": [
    {
      "TowerPath": "Towers/CannonTower",
      "ProjectilePath": "Projectiles/GravitatedProjectile",
      "ProjectileDamage": 50.0,
      "ProjectileSpeed": 20.0,
      "ProjectileRadius": 1.2,
      "ShootingDistance": 30.0,
      "ShootPeriod": 3.0,
      "x": 54.6,
      "y": 3.82,
      "z": 48.2
    },
    {
      "TowerPath": "Towers/CrystalTower",
      "ProjectilePath": "Projectiles/GuidedProjectile",
      "ProjectileDamage": 30.0,
      "ProjectileSpeed": 10.0,
      "ProjectileRadius": 1.2,
      "ShootingDistance": 60,
      "ShootPeriod": 1.2,
      "x": 87.1,
      "y": 3.8,
      "z": 53.3
    }
  ]
}